................
----------------------------------------------------------------------
Ran 16 tests in 8.473s

OK
Name             Stmts   Miss Branch BrPart  Cover   Missing
------------------------------------------------------------
Collatz.py          44      1     20      1    97%   111, 110->111
TestCollatz.py      69      0      2      1    99%   128->exit
------------------------------------------------------------
TOTAL              113      1     22      2    98%
